…
city_and_state = as.tibble(summ_df$city_state)

ci_for_states = city_and_state %>% mutate(data = ci) %>% filter(value != "Tulsa, AL")

unnested_ci_for_states = bind_rows(ci_for_states) %>% unnest(ci_for_states$data) %>% janitor::clean_names() 
```

Create a plot that shows the estimates and CIs for each city – check out geom\_errorbar for a way to add error bars based on the upper and lower limits. Organize cities according to the proportion of unsolved homicides.

``` r
unnested_ci_for_states %>% 
  mutate(city_state = factor(city_state, estimate))
```

    ## # A tibble: 50 x 6
    ##    value          data              city_state estimate conf_low conf_high
    ##    <chr>          <list>            <fct>         <dbl>    <dbl>     <dbl>
    ##  1 Albuquerque, … <data.frame [1 ×… <NA>          0.386    0.337     0.438
    ##  2 Atlanta, GA    <data.frame [1 ×… <NA>          0.383    0.353     0.415
    ##  3 Baltimore, MD  <data.frame [1 ×… <NA>          0.646    0.628     0.663
    ##  4 Baton Rouge, … <data.frame [1 ×… <NA>          0.462    0.414     0.511
    ##  5 Birmingham, AL <data.frame [1 ×… <NA>          0.434    0.399     0.469
    ##  6 Boston, MA     <data.frame [1 ×… <NA>          0.505    0.465     0.545
    ##  7 Buffalo, NY    <data.frame [1 ×… <NA>          0.612    0.569     0.654
    ##  8 Charlotte, NC  <data.frame [1 ×… <NA>          0.300    0.266     0.336
    ##  9 Chicago, IL    <data.frame [1 ×… <NA>          0.736    0.724     0.747
    ## 10 Cincinnati, OH <data.frame [1 ×… <NA>          0.445    0.408     0.483
    ## # ... with 40 more rows
…
